Error at line 2: Function of type void cannot return type int
Error at line 6: Function of type int cannot return type string
Error at line 10: Function of type double cannot return type char
Error at line 14: Function of type string cannot return type int
Error at line 18: Function of type boolean cannot return type int
Error at line 22: Function of type char cannot return type string
Error at line 26: Function of type jsonObj cannot return type char
Error at line 30: Function of type jsonElem cannot return type char
Error at line 34: Function of type int cannot return type double
Error at line 38: Function of type string cannot return type  void
Error at line 42: Function of type int[] cannot return type int
Error at line 46: Function of type int[][] cannot return type int[][][]
Error at line 50: Function of type int[] cannot return type string[]