Error at line 2: String concatenation doesn't work with type jsonObj
Error at line 3: String concatenation doesn't work with type jsonElem
Error at line 7: String concatenation doesn't work with type jsonObj
Error at line 8: String concatenation doesn't work with type jsonElem