true
[hello]
[no, hello]
true
no
0
world
1
0
true
false
2
true
false
3
true
[Richard, Jared, 1, two, tre, Richard]
true
[Richard, Jared, 1, two, tre, Richard, neon, crypton, coal]
1
[Richard, Jared, bell, two, tre, Richard, neon, crypton, coal]
true
[Jared, bell, two, tre, neon, crypton, coal]
true
[tre]
