-969099747
-30
7
4
6
7
12
false
true
true
true
true
4
4
7
7
lo World!
llo
Hewwo Worwd!
Hellgood Wgoodrld!
true
true
Herlo World!
Herro Worrd!
[Goodbye, cruel world]
[Goodbye, cruel, world]
hello world!
HELLO WORLD!
What
[H, e, l, l, o,  , W, o, r, l, d, !]
l

true
1231
1

10
28
1
2
10
-1
10.0
a
1342177280
10
12
1010
8
2
1

c
99
-2
e
C
false
false
false
false
true
true
true
false
false
true
C
12
false
false
false
false

0.4
-1505755133
-1
0
0x1.999999999999ap-2
false
false
true
