Program
  List
    ConstVarDecl
      FuncTypeAccess TypeName="func"
        TypeAccess TypeName="void"
        List
      List
        VariableDeclarator
          IdDecl ID="testFunction"
          Opt
            FuncDeclExpr
              FuncDecl
                TypeAccess TypeName="void"
                List
                Block
                  List
                    VarDeclStmt
                      VarDecl
                        RefTypeAccess TypeName="ref"
                          TypeAccess TypeName="int"
                        List
                          VariableDeclarator
                            IdDecl ID="a"
                            Opt
                              AllocInvocation
                                TypeAccess TypeName="int"
                                Opt
                    ExprStmt
                      AssignSimpleExpr
                        DereferenceExpr
                          IdUse ID="a"
                        IntegerLiteral IsHex="false" Literal="12"
                    ExprStmt
                      FuncAccess
                        IdUse ID="print"
                        List
                          IdUse ID="a"
                    ExprStmt
                      FreeInvocation
                        IdUse ID="a"
                    VarDeclStmt
                      VarDecl
                        ArrayTypeAccess TypeName="array"
                          RefTypeAccess TypeName="ref"
                            TypeAccess TypeName="int"
                        List
                          VariableDeclarator
                            IdDecl ID="arr"
                            Opt
                              AllocInvocation
                                TypeAccess TypeName="int"
                                Opt
                                  IntegerLiteral IsHex="false" Literal="2"
                    ExprStmt
                      AssignSimpleExpr
                        DereferenceExpr
                          ArrayAccess
                            IdUse ID="arr"
                            IntegerLiteral IsHex="false" Literal="0"
                        IntegerLiteral IsHex="false" Literal="11"
                    ExprStmt
                      AssignSimpleExpr
                        DereferenceExpr
                          ArrayAccess
                            IdUse ID="arr"
                            IntegerLiteral IsHex="false" Literal="1"
                        IntegerLiteral IsHex="false" Literal="12"
                    ExprStmt
                      FuncAccess
                        IdUse ID="print"
                        List
                          IdUse ID="arr"
                    ExprStmt
                      FreeInvocation
                        IdUse ID="arr"
                    ExprStmt
                      FuncAccess
                        IdUse ID="print"
                        List
                          FuncAccess
                            IdUse ID="returnDyn"
                            List
    ConstVarDecl
      FuncTypeAccess TypeName="func"
        RefTypeAccess TypeName="ref"
          TypeAccess TypeName="int"
        List
      List
        VariableDeclarator
          IdDecl ID="returnDyn"
          Opt
            FuncDeclExpr
              FuncDecl
                RefTypeAccess TypeName="ref"
                  TypeAccess TypeName="int"
                List
                Block
                  List
                    VarDeclStmt
                      VarDecl
                        RefTypeAccess TypeName="ref"
                          TypeAccess TypeName="int"
                        List
                          VariableDeclarator
                            IdDecl ID="stuff"
                            Opt
                              AllocInvocation
                                TypeAccess TypeName="int"
                                Opt
                    ExprStmt
                      AssignSimpleExpr
                        DereferenceExpr
                          IdUse ID="stuff"
                        IntegerLiteral IsHex="false" Literal="123"
                    ReturnStmt
                      Opt
                        IdUse ID="stuff"
