Program
  List
    ConstVarDecl
      FuncTypeAccess TypeName="func"
        TypeAccess TypeName="void"
        List
      List
        VariableDeclarator
          IdDecl ID="f"
          Opt
            FuncDeclExpr
              FuncDecl
                TypeAccess TypeName="void"
                List
                Block
                  List
                    VarDeclStmt
                      VarDecl
                        ArrayTypeAccess TypeName="array"
                          TypeAccess TypeName="int"
                        List
                          VariableDeclarator
                            IdDecl ID="a"
                            Opt
                              ArrayCreationExpr
                                ArrayTypeAccess TypeName="array"
                                  TypeAccess TypeName="int"
                                List
                                  IntegerLiteral IsHex="false" Literal="10"
                                List
