Program
  List
    ConstVarDecl
      FuncTypeAccess TypeName="func"
        TypeAccess TypeName="void"
        List
      List
        VariableDeclarator
          IdDecl ID="f"
          Opt
            FuncDeclExpr
              FuncDecl
                TypeAccess TypeName="void"
                List
                Block
                  List
                    VarDeclStmt
                      VarDecl
                        ArrayTypeAccess TypeName="array"
                          FuncTypeAccess TypeName="func"
                            TypeAccess TypeName="void"
                            List
                              TypeAccess TypeName="int"
                        List
                          VariableDeclarator
                            IdDecl ID="funcArr"
                            Opt
                              ArrayCreationExpr
                                ArrayTypeAccess TypeName="array"
                                  FuncTypeAccess TypeName="func"
                                    TypeAccess TypeName="void"
                                    List
                                      TypeAccess TypeName="int"
                                List
                                List
                                  FuncDeclExpr
                                    FuncDecl
                                      TypeAccess TypeName="void"
                                      List
                                        ParameterDeclaration
                                          TypeAccess TypeName="int"
                                          IdDecl ID="a"
                                      Block
                                        List
                                          ExprStmt
                                            FuncAccess
                                              IdUse ID="print"
                                              List
                                                IdUse ID="a"
                    ExprStmt
                      FuncAccess
                        ArrayAccess
                          IdUse ID="funcArr"
                          IntegerLiteral IsHex="false" Literal="0"
                        List
                          IntegerLiteral IsHex="false" Literal="123"
