10 3.14 true a Hello World! [1, 2, 3]
20 123.132 false b Bye world! [4, 5, 6]
20 123.132 false b Bye world! [4, 5, 6]
20 123.132 false b Bye world! [4, 5, 6]
20 123.132 false b Bye world! [4, 5, 6]
30 1232131.0 true c No []
30 30
30 31
31 31
[20, 5, 6] [4, 5, 10]
